Device: cuda
Accuracy for epoch 1: 58.08%
Accuracy for epoch 2: 58.08%
Accuracy for epoch 3: 58.08%
Accuracy for epoch 4: 58.08%
Accuracy for epoch 5: 46.83%
Accuracy for epoch 6: 58.08%
Accuracy for epoch 7: 58.08%
Accuracy for epoch 8: 10.68%
Accuracy for epoch 9: 10.68%
Accuracy for epoch 10: 10.68%
Accuracy for epoch 11: 10.68%
Accuracy for epoch 12: 10.68%
Accuracy for epoch 13: 56.4%
Accuracy for epoch 14: 53.99%
Accuracy for epoch 15: 51.32%
Accuracy for epoch 16: 32.97%
Accuracy for epoch 17: 31.34%
Accuracy for epoch 18: 61.92%
Accuracy for epoch 19: 66.65%
Accuracy for epoch 20: 62.18%
Accuracy for epoch 21: 68.03%
Accuracy for epoch 22: 76.09%
Accuracy for epoch 23: 74.78%
Accuracy for epoch 24: 80.74%
Accuracy for epoch 25: 82.12%
Accuracy for epoch 26: 77.45%
Accuracy for epoch 27: 84.18%
Accuracy for epoch 28: 84.54%
Accuracy for epoch 29: 71.88%
Accuracy for epoch 30: 85.95%
Accuracy for epoch 31: 83.52%
Accuracy for epoch 32: 86.6%
Accuracy for epoch 33: 86.16%
Accuracy for epoch 34: 86.48%
Accuracy for epoch 35: 86.97%
Accuracy for epoch 36: 84.71%
Accuracy for epoch 37: 87.65%
Accuracy for epoch 38: 87.96%
Accuracy for epoch 39: 87.79%
Accuracy for epoch 40: 85.29%
Accuracy for epoch 41: 87.92%
Accuracy for epoch 42: 87.25%
Accuracy for epoch 43: 88.28%
Accuracy for epoch 44: 88.33%
Accuracy for epoch 45: 88.36%
Accuracy for epoch 46: 88.32%
Accuracy for epoch 47: 88.01%
Accuracy for epoch 48: 88.73%
Accuracy for epoch 49: 88.79%
Accuracy for epoch 50: 88.76%
Total training time: 57.6 seconds
