Device: cuda
Accuracy for epoch 1: 52.24%
Accuracy for epoch 2: 54.34%
Accuracy for epoch 3: 19.79%
Accuracy for epoch 4: 54.88%
Accuracy for epoch 5: 63.97%
Accuracy for epoch 6: 64.21%
Accuracy for epoch 7: 69.42%
Accuracy for epoch 8: 73.37%
Accuracy for epoch 9: 75.78%
Accuracy for epoch 10: 76.25%
Accuracy for epoch 11: 62.25%
Accuracy for epoch 12: 70.82%
Accuracy for epoch 13: 75.12%
Accuracy for epoch 14: 79.07%
Accuracy for epoch 15: 58.04%
Accuracy for epoch 16: 60.09%
Accuracy for epoch 17: 71.54%
Accuracy for epoch 18: 73.66%
Accuracy for epoch 19: 77.35%
Accuracy for epoch 20: 79.62%
Accuracy for epoch 21: 77.99%
Accuracy for epoch 22: 81.94%
Accuracy for epoch 23: 76.34%
Accuracy for epoch 24: 76.6%
Accuracy for epoch 25: 58.08%
Accuracy for epoch 26: 58.08%
Accuracy for epoch 27: 58.08%
Accuracy for epoch 28: 58.08%
Accuracy for epoch 29: 58.08%
Accuracy for epoch 30: 58.08%
Accuracy for epoch 31: 58.08%
Accuracy for epoch 32: 58.08%
Accuracy for epoch 33: 58.08%
Accuracy for epoch 34: 10.74%
Accuracy for epoch 35: 10.69%
Accuracy for epoch 36: 10.69%
Accuracy for epoch 37: 10.69%
Accuracy for epoch 38: 10.69%
Accuracy for epoch 39: 10.69%
Accuracy for epoch 40: 10.69%
Accuracy for epoch 41: 10.69%
Accuracy for epoch 42: 10.69%
Accuracy for epoch 43: 10.69%
Accuracy for epoch 44: 10.69%
Accuracy for epoch 45: 10.69%
Accuracy for epoch 46: 10.69%
Accuracy for epoch 47: 10.69%
Accuracy for epoch 48: 10.69%
Accuracy for epoch 49: 10.69%
Accuracy for epoch 50: 10.69%
Total training time: 31.0 seconds
