Device: cuda
Accuracy for epoch 1: 11.54%
Accuracy for epoch 2: 11.54%
Accuracy for epoch 3: 11.54%
Accuracy for epoch 4: 11.54%
Accuracy for epoch 5: 11.54%
Accuracy for epoch 6: 11.54%
Accuracy for epoch 7: 11.54%
Accuracy for epoch 8: 11.54%
Accuracy for epoch 9: 11.54%
Accuracy for epoch 10: 11.54%
Accuracy for epoch 11: 11.54%
Accuracy for epoch 12: 11.54%
Accuracy for epoch 13: 11.54%
Accuracy for epoch 14: 11.54%
Accuracy for epoch 15: 11.59%
Accuracy for epoch 16: 11.71%
Accuracy for epoch 17: 58.07%
Accuracy for epoch 18: 58.07%
Accuracy for epoch 19: 58.08%
Accuracy for epoch 20: 58.08%
Accuracy for epoch 21: 58.08%
Accuracy for epoch 22: 58.08%
Accuracy for epoch 23: 58.08%
Accuracy for epoch 24: 58.08%
Accuracy for epoch 25: 58.08%
Accuracy for epoch 26: 0.67%
Accuracy for epoch 27: 58.08%
Accuracy for epoch 28: 58.08%
Accuracy for epoch 29: 0.72%
Accuracy for epoch 30: 56.29%
Accuracy for epoch 31: 55.97%
Accuracy for epoch 32: 0.74%
Accuracy for epoch 33: 57.95%
Accuracy for epoch 34: 57.5%
Accuracy for epoch 35: 57.46%
Accuracy for epoch 36: 57.55%
Accuracy for epoch 37: 57.63%
Accuracy for epoch 38: 57.67%
Accuracy for epoch 39: 57.71%
Accuracy for epoch 40: 57.73%
Accuracy for epoch 41: 57.76%
Accuracy for epoch 42: 57.76%
Accuracy for epoch 43: 57.8%
Accuracy for epoch 44: 57.8%
Accuracy for epoch 45: 57.8%
Accuracy for epoch 46: 57.8%
Accuracy for epoch 47: 57.83%
Accuracy for epoch 48: 57.83%
Accuracy for epoch 49: 57.83%
Accuracy for epoch 50: 57.83%
Total training time: 836.9 seconds
