Device: cuda
Accuracy for epoch 1: 3.6%
Accuracy for epoch 2: 3.6%
Accuracy for epoch 3: 3.6%
Accuracy for epoch 4: 3.6%
Accuracy for epoch 5: 3.6%
Accuracy for epoch 6: 58.08%
Accuracy for epoch 7: 11.24%
Accuracy for epoch 8: 42.86%
Accuracy for epoch 9: 10.68%
Accuracy for epoch 10: 10.68%
Accuracy for epoch 11: 10.68%
Accuracy for epoch 12: 10.68%
Accuracy for epoch 13: 10.68%
Accuracy for epoch 14: 10.69%
Accuracy for epoch 15: 54.55%
Accuracy for epoch 16: 58.74%
Accuracy for epoch 17: 60.87%
Accuracy for epoch 18: 60.65%
Accuracy for epoch 19: 60.12%
Accuracy for epoch 20: 65.36%
Accuracy for epoch 21: 68.1%
Accuracy for epoch 22: 68.41%
Accuracy for epoch 23: 72.99%
Accuracy for epoch 24: 11.56%
Accuracy for epoch 25: 11.54%
Accuracy for epoch 26: 11.54%
Accuracy for epoch 27: 11.54%
Accuracy for epoch 28: 11.54%
Accuracy for epoch 29: 11.54%
Accuracy for epoch 30: 11.54%
Accuracy for epoch 31: 11.54%
Accuracy for epoch 32: 11.54%
Accuracy for epoch 33: 11.54%
Accuracy for epoch 34: 11.54%
Accuracy for epoch 35: 11.54%
Accuracy for epoch 36: 11.54%
Accuracy for epoch 37: 11.54%
Accuracy for epoch 38: 11.54%
Accuracy for epoch 39: 11.54%
Accuracy for epoch 40: 11.54%
Accuracy for epoch 41: 11.54%
Accuracy for epoch 42: 11.54%
Accuracy for epoch 43: 11.54%
Accuracy for epoch 44: 11.54%
Accuracy for epoch 45: 11.54%
Accuracy for epoch 46: 11.54%
Accuracy for epoch 47: 11.54%
Accuracy for epoch 48: 11.54%
Accuracy for epoch 49: 11.54%
Accuracy for epoch 50: 11.54%
Total training time: 54.2 seconds
