Device: cuda
Accuracy for epoch 1: 0.67%
Accuracy for epoch 2: 11.55%
Accuracy for epoch 3: 11.54%
Accuracy for epoch 4: 11.54%
Accuracy for epoch 5: 11.54%
Accuracy for epoch 6: 11.54%
Accuracy for epoch 7: 11.54%
Accuracy for epoch 8: 11.81%
Accuracy for epoch 9: 58.06%
Accuracy for epoch 10: 58.07%
Accuracy for epoch 11: 58.08%
Accuracy for epoch 12: 0.67%
Accuracy for epoch 13: 11.71%
Accuracy for epoch 14: 11.58%
Accuracy for epoch 15: 58.05%
Accuracy for epoch 16: 58.08%
Accuracy for epoch 17: 58.08%
Accuracy for epoch 18: 58.08%
Accuracy for epoch 19: 0.72%
Accuracy for epoch 20: 58.1%
Accuracy for epoch 21: 58.08%
Accuracy for epoch 22: 0.67%
Accuracy for epoch 23: 40.89%
Accuracy for epoch 24: 54.41%
Accuracy for epoch 25: 58.08%
Accuracy for epoch 26: 56.09%
Accuracy for epoch 27: 57.73%
Accuracy for epoch 28: 0.7%
Accuracy for epoch 29: 57.95%
Accuracy for epoch 30: 57.67%
Accuracy for epoch 31: 0.67%
Accuracy for epoch 32: 0.67%
Accuracy for epoch 33: 0.67%
Accuracy for epoch 34: 0.67%
Accuracy for epoch 35: 0.67%
Accuracy for epoch 36: 0.67%
Accuracy for epoch 37: 0.67%
Accuracy for epoch 38: 0.67%
Accuracy for epoch 39: 0.67%
Accuracy for epoch 40: 0.67%
Accuracy for epoch 41: 0.67%
Accuracy for epoch 42: 0.67%
Accuracy for epoch 43: 0.67%
Accuracy for epoch 44: 0.67%
Accuracy for epoch 45: 0.67%
Accuracy for epoch 46: 0.67%
Accuracy for epoch 47: 0.67%
Accuracy for epoch 48: 0.67%
Accuracy for epoch 49: 0.67%
Accuracy for epoch 50: 0.67%
Total training time: 94.0 seconds
