Device: cuda
Accuracy for epoch 1: 10.68%
Accuracy for epoch 2: 10.69%
Accuracy for epoch 3: 11.24%
Accuracy for epoch 4: 11.24%
Accuracy for epoch 5: 11.24%
Accuracy for epoch 6: 11.24%
Accuracy for epoch 7: 11.33%
Accuracy for epoch 8: 11.52%
Accuracy for epoch 9: 58.06%
Accuracy for epoch 10: 58.08%
Accuracy for epoch 11: 58.08%
Accuracy for epoch 12: 58.08%
Accuracy for epoch 13: 58.08%
Accuracy for epoch 14: 58.08%
Accuracy for epoch 15: 58.08%
Accuracy for epoch 16: 58.08%
Accuracy for epoch 17: 58.08%
Accuracy for epoch 18: 58.08%
Accuracy for epoch 19: 58.08%
Accuracy for epoch 20: 0.72%
Accuracy for epoch 21: 0.67%
Accuracy for epoch 22: 0.67%
Accuracy for epoch 23: 11.61%
Accuracy for epoch 24: 11.57%
Accuracy for epoch 25: 11.54%
Accuracy for epoch 26: 11.54%
Accuracy for epoch 27: 11.54%
Accuracy for epoch 28: 11.54%
Accuracy for epoch 29: 11.57%
Accuracy for epoch 30: 0.67%
Accuracy for epoch 31: 11.54%
Accuracy for epoch 32: 11.56%
Accuracy for epoch 33: 11.55%
Accuracy for epoch 34: 11.57%
Accuracy for epoch 35: 11.33%
Accuracy for epoch 36: 0.67%
Accuracy for epoch 37: 0.67%
Accuracy for epoch 38: 0.67%
Accuracy for epoch 39: 0.67%
Accuracy for epoch 40: 0.67%
Accuracy for epoch 41: 0.67%
Accuracy for epoch 42: 0.67%
Accuracy for epoch 43: 0.67%
Accuracy for epoch 44: 0.67%
Accuracy for epoch 45: 0.67%
Accuracy for epoch 46: 0.67%
Accuracy for epoch 47: 0.67%
Accuracy for epoch 48: 0.67%
Accuracy for epoch 49: 0.67%
Accuracy for epoch 50: 0.67%
Total training time: 219.5 seconds
