Device: cuda
Accuracy for epoch 1: 1.96%
Accuracy for epoch 2: 2.0%
Accuracy for epoch 3: 2.0%
Accuracy for epoch 4: 2.05%
Accuracy for epoch 5: 2.17%
Accuracy for epoch 6: 58.03%
Accuracy for epoch 7: 58.05%
Accuracy for epoch 8: 58.06%
Accuracy for epoch 9: 58.07%
Accuracy for epoch 10: 58.08%
Accuracy for epoch 11: 58.08%
Accuracy for epoch 12: 58.08%
Accuracy for epoch 13: 58.08%
Accuracy for epoch 14: 58.08%
Accuracy for epoch 15: 58.08%
Accuracy for epoch 16: 58.08%
Accuracy for epoch 17: 58.08%
Accuracy for epoch 18: 58.08%
Accuracy for epoch 19: 58.08%
Accuracy for epoch 20: 58.08%
Accuracy for epoch 21: 58.08%
Accuracy for epoch 22: 58.08%
Accuracy for epoch 23: 58.08%
Accuracy for epoch 24: 58.08%
Accuracy for epoch 25: 58.08%
Accuracy for epoch 26: 58.08%
Accuracy for epoch 27: 58.08%
Accuracy for epoch 28: 58.08%
Accuracy for epoch 29: 58.08%
Accuracy for epoch 30: 58.11%
Accuracy for epoch 31: 57.59%
Accuracy for epoch 32: 52.11%
Accuracy for epoch 33: 57.73%
Accuracy for epoch 34: 57.89%
Accuracy for epoch 35: 57.59%
Accuracy for epoch 36: 0.67%
Accuracy for epoch 37: 0.67%
Accuracy for epoch 38: 47.67%
Accuracy for epoch 39: 57.24%
Accuracy for epoch 40: 57.5%
Accuracy for epoch 41: 57.67%
Accuracy for epoch 42: 0.67%
Accuracy for epoch 43: 0.67%
Accuracy for epoch 44: 0.67%
Accuracy for epoch 45: 0.67%
Accuracy for epoch 46: 0.67%
Accuracy for epoch 47: 0.67%
Accuracy for epoch 48: 0.67%
Accuracy for epoch 49: 0.67%
Accuracy for epoch 50: 0.67%
Total training time: 95.6 seconds
