Device: cuda
Accuracy for epoch 1: 51.34%
Accuracy for epoch 2: 52.89%
Accuracy for epoch 3: 50.12%
Accuracy for epoch 4: 63.37%
Accuracy for epoch 5: 64.1%
Accuracy for epoch 6: 68.77%
Accuracy for epoch 7: 69.24%
Accuracy for epoch 8: 74.19%
Accuracy for epoch 9: 79.4%
Accuracy for epoch 10: 81.89%
Accuracy for epoch 11: 84.0%
Accuracy for epoch 12: 70.97%
Accuracy for epoch 13: 76.52%
Accuracy for epoch 14: 28.45%
Accuracy for epoch 15: 62.87%
Accuracy for epoch 16: 65.69%
Accuracy for epoch 17: 72.15%
Accuracy for epoch 18: 58.08%
Accuracy for epoch 19: 58.08%
Accuracy for epoch 20: 58.08%
Accuracy for epoch 21: 58.08%
Accuracy for epoch 22: 58.08%
Accuracy for epoch 23: 58.08%
Accuracy for epoch 24: 58.08%
Accuracy for epoch 25: 58.08%
Accuracy for epoch 26: 58.08%
Accuracy for epoch 27: 58.08%
Accuracy for epoch 28: 58.08%
Accuracy for epoch 29: 58.08%
Accuracy for epoch 30: 58.08%
Accuracy for epoch 31: 58.08%
Accuracy for epoch 32: 58.08%
Accuracy for epoch 33: 58.08%
Accuracy for epoch 34: 58.08%
Accuracy for epoch 35: 58.08%
Accuracy for epoch 36: 58.08%
Accuracy for epoch 37: 58.08%
Accuracy for epoch 38: 58.08%
Accuracy for epoch 39: 58.08%
Accuracy for epoch 40: 58.08%
Accuracy for epoch 41: 58.08%
Accuracy for epoch 42: 58.08%
Accuracy for epoch 43: 58.08%
Accuracy for epoch 44: 58.08%
Accuracy for epoch 45: 58.08%
Accuracy for epoch 46: 58.08%
Accuracy for epoch 47: 58.08%
Accuracy for epoch 48: 58.08%
Accuracy for epoch 49: 58.08%
Accuracy for epoch 50: 58.08%
Total training time: 31.5 seconds
