Device: cuda
Accuracy for epoch 1: 11.24%
Accuracy for epoch 2: 11.24%
Accuracy for epoch 3: 11.24%
Accuracy for epoch 4: 11.24%
Accuracy for epoch 5: 11.24%
Accuracy for epoch 6: 11.24%
Accuracy for epoch 7: 11.24%
Accuracy for epoch 8: 11.24%
Accuracy for epoch 9: 11.28%
Accuracy for epoch 10: 58.05%
Accuracy for epoch 11: 58.08%
Accuracy for epoch 12: 58.08%
Accuracy for epoch 13: 0.67%
Accuracy for epoch 14: 58.08%
Accuracy for epoch 15: 58.08%
Accuracy for epoch 16: 58.08%
Accuracy for epoch 17: 58.08%
Accuracy for epoch 18: 58.08%
Accuracy for epoch 19: 0.67%
Accuracy for epoch 20: 51.48%
Accuracy for epoch 21: 0.67%
Accuracy for epoch 22: 0.67%
Accuracy for epoch 23: 57.76%
Accuracy for epoch 24: 0.67%
Accuracy for epoch 25: 58.09%
Accuracy for epoch 26: 58.1%
Accuracy for epoch 27: 58.1%
Accuracy for epoch 28: 57.73%
Accuracy for epoch 29: 57.92%
Accuracy for epoch 30: 57.63%
Accuracy for epoch 31: 57.63%
Accuracy for epoch 32: 57.71%
Accuracy for epoch 33: 57.71%
Accuracy for epoch 34: 0.67%
Accuracy for epoch 35: 0.67%
Accuracy for epoch 36: 0.67%
Accuracy for epoch 37: 0.67%
Accuracy for epoch 38: 0.67%
Accuracy for epoch 39: 0.67%
Accuracy for epoch 40: 0.67%
Accuracy for epoch 41: 0.67%
Accuracy for epoch 42: 0.67%
Accuracy for epoch 43: 0.67%
Accuracy for epoch 44: 0.67%
Accuracy for epoch 45: 0.67%
Accuracy for epoch 46: 0.67%
Accuracy for epoch 47: 0.67%
Accuracy for epoch 48: 0.67%
Accuracy for epoch 49: 0.67%
Accuracy for epoch 50: 0.67%
Total training time: 80.3 seconds
