Device: cuda
Accuracy for epoch 1: 10.71%
Accuracy for epoch 2: 10.7%
Accuracy for epoch 3: 10.69%
Accuracy for epoch 4: 10.69%
Accuracy for epoch 5: 10.69%
Accuracy for epoch 6: 10.68%
Accuracy for epoch 7: 10.68%
Accuracy for epoch 8: 10.73%
Accuracy for epoch 9: 58.06%
Accuracy for epoch 10: 58.08%
Accuracy for epoch 11: 58.08%
Accuracy for epoch 12: 0.67%
Accuracy for epoch 13: 58.08%
Accuracy for epoch 14: 58.1%
Accuracy for epoch 15: 58.08%
Accuracy for epoch 16: 58.08%
Accuracy for epoch 17: 58.08%
Accuracy for epoch 18: 0.67%
Accuracy for epoch 19: 0.67%
Accuracy for epoch 20: 0.67%
Accuracy for epoch 21: 58.01%
Accuracy for epoch 22: 0.67%
Accuracy for epoch 23: 58.08%
Accuracy for epoch 24: 58.08%
Accuracy for epoch 25: 58.08%
Accuracy for epoch 26: 58.08%
Accuracy for epoch 27: 58.06%
Accuracy for epoch 28: 58.04%
Accuracy for epoch 29: 57.99%
Accuracy for epoch 30: 0.67%
Accuracy for epoch 31: 57.99%
Accuracy for epoch 32: 57.87%
Accuracy for epoch 33: 0.67%
Accuracy for epoch 34: 0.67%
Accuracy for epoch 35: 11.24%
Accuracy for epoch 36: 11.2%
Accuracy for epoch 37: 11.1%
Accuracy for epoch 38: 11.28%
Accuracy for epoch 39: 0.67%
Accuracy for epoch 40: 0.67%
Accuracy for epoch 41: 0.67%
Accuracy for epoch 42: 11.3%
Accuracy for epoch 43: 0.67%
Accuracy for epoch 44: 0.67%
Accuracy for epoch 45: 0.67%
Accuracy for epoch 46: 0.67%
Accuracy for epoch 47: 0.67%
Accuracy for epoch 48: 0.67%
Accuracy for epoch 49: 0.67%
Accuracy for epoch 50: 0.67%
Total training time: 928.2 seconds
