Device: cuda
Accuracy for epoch 1: 2.0%
Accuracy for epoch 2: 2.05%
Accuracy for epoch 3: 2.09%
Accuracy for epoch 4: 2.17%
Accuracy for epoch 5: 58.05%
Accuracy for epoch 6: 58.07%
Accuracy for epoch 7: 58.08%
Accuracy for epoch 8: 58.08%
Accuracy for epoch 9: 58.08%
Accuracy for epoch 10: 58.08%
Accuracy for epoch 11: 58.08%
Accuracy for epoch 12: 58.08%
Accuracy for epoch 13: 0.67%
Accuracy for epoch 14: 0.67%
Accuracy for epoch 15: 11.28%
Accuracy for epoch 16: 11.57%
Accuracy for epoch 17: 58.08%
Accuracy for epoch 18: 58.08%
Accuracy for epoch 19: 58.08%
Accuracy for epoch 20: 58.08%
Accuracy for epoch 21: 0.67%
Accuracy for epoch 22: 58.11%
Accuracy for epoch 23: 0.67%
Accuracy for epoch 24: 58.08%
Accuracy for epoch 25: 0.65%
Accuracy for epoch 26: 26.22%
Accuracy for epoch 27: 52.11%
Accuracy for epoch 28: 55.09%
Accuracy for epoch 29: 49.91%
Accuracy for epoch 30: 29.55%
Accuracy for epoch 31: 0.67%
Accuracy for epoch 32: 10.73%
Accuracy for epoch 33: 58.08%
Accuracy for epoch 34: 57.15%
Accuracy for epoch 35: 51.19%
Accuracy for epoch 36: 57.79%
Accuracy for epoch 37: 57.15%
Accuracy for epoch 38: 59.13%
Accuracy for epoch 39: 11.24%
Accuracy for epoch 40: 11.24%
Accuracy for epoch 41: 11.24%
Accuracy for epoch 42: 11.24%
Accuracy for epoch 43: 0.7%
Accuracy for epoch 44: 11.54%
Accuracy for epoch 45: 0.67%
Accuracy for epoch 46: 0.67%
Accuracy for epoch 47: 0.67%
Accuracy for epoch 48: 0.67%
Accuracy for epoch 49: 0.67%
Accuracy for epoch 50: 0.67%
Total training time: 65.2 seconds
