Device: cuda
Accuracy for epoch 1: 11.24%
Accuracy for epoch 2: 11.24%
Accuracy for epoch 3: 11.24%
Accuracy for epoch 4: 11.24%
Accuracy for epoch 5: 11.24%
Accuracy for epoch 6: 11.24%
Accuracy for epoch 7: 11.24%
Accuracy for epoch 8: 11.24%
Accuracy for epoch 9: 11.24%
Accuracy for epoch 10: 11.24%
Accuracy for epoch 11: 57.95%
Accuracy for epoch 12: 58.06%
Accuracy for epoch 13: 58.07%
Accuracy for epoch 14: 58.08%
Accuracy for epoch 15: 0.67%
Accuracy for epoch 16: 0.67%
Accuracy for epoch 17: 0.67%
Accuracy for epoch 18: 0.67%
Accuracy for epoch 19: 11.65%
Accuracy for epoch 20: 11.59%
Accuracy for epoch 21: 11.78%
Accuracy for epoch 22: 0.67%
Accuracy for epoch 23: 0.67%
Accuracy for epoch 24: 0.67%
Accuracy for epoch 25: 11.34%
Accuracy for epoch 26: 11.29%
Accuracy for epoch 27: 11.28%
Accuracy for epoch 28: 11.27%
Accuracy for epoch 29: 11.27%
Accuracy for epoch 30: 11.27%
Accuracy for epoch 31: 11.27%
Accuracy for epoch 32: 11.28%
Accuracy for epoch 33: 11.3%
Accuracy for epoch 34: 0.67%
Accuracy for epoch 35: 0.67%
Accuracy for epoch 36: 0.67%
Accuracy for epoch 37: 0.67%
Accuracy for epoch 38: 0.67%
Accuracy for epoch 39: 0.67%
Accuracy for epoch 40: 0.67%
Accuracy for epoch 41: 0.67%
Accuracy for epoch 42: 0.67%
Accuracy for epoch 43: 0.67%
Accuracy for epoch 44: 0.67%
Accuracy for epoch 45: 11.63%
Accuracy for epoch 46: 0.67%
Accuracy for epoch 47: 0.67%
Accuracy for epoch 48: 0.67%
Accuracy for epoch 49: 0.67%
Accuracy for epoch 50: 0.67%
Total training time: 78.5 seconds
