Device: cuda
Accuracy for epoch 1: 58.08%
Accuracy for epoch 2: 53.5%
Accuracy for epoch 3: 50.48%
Accuracy for epoch 4: 60.46%
Accuracy for epoch 5: 61.45%
Accuracy for epoch 6: 66.49%
Accuracy for epoch 7: 62.89%
Accuracy for epoch 8: 68.39%
Accuracy for epoch 9: 78.71%
Accuracy for epoch 10: 78.74%
Accuracy for epoch 11: 84.3%
Accuracy for epoch 12: 69.57%
Accuracy for epoch 13: 81.69%
Accuracy for epoch 14: 87.09%
Accuracy for epoch 15: 77.38%
Accuracy for epoch 16: 88.49%
Accuracy for epoch 17: 88.95%
Accuracy for epoch 18: 87.44%
Accuracy for epoch 19: 88.36%
Accuracy for epoch 20: 89.96%
Accuracy for epoch 21: 89.62%
Accuracy for epoch 22: 89.95%
Accuracy for epoch 23: 90.56%
Accuracy for epoch 24: 90.95%
Accuracy for epoch 25: 90.99%
Accuracy for epoch 26: 91.1%
Accuracy for epoch 27: 91.19%
Accuracy for epoch 28: 91.36%
Accuracy for epoch 29: 91.48%
Accuracy for epoch 30: 91.46%
Accuracy for epoch 31: 91.5%
Accuracy for epoch 32: 91.54%
Accuracy for epoch 33: 91.7%
Accuracy for epoch 34: 91.8%
Accuracy for epoch 35: 91.95%
Accuracy for epoch 36: 91.98%
Accuracy for epoch 37: 91.95%
Accuracy for epoch 38: 92.31%
Accuracy for epoch 39: 92.28%
Accuracy for epoch 40: 92.34%
Accuracy for epoch 41: 86.91%
Accuracy for epoch 42: 92.28%
Accuracy for epoch 43: 92.4%
Accuracy for epoch 44: 92.47%
Accuracy for epoch 45: 92.44%
Accuracy for epoch 46: 92.44%
Accuracy for epoch 47: 92.5%
Accuracy for epoch 48: 92.54%
Accuracy for epoch 49: 92.52%
Accuracy for epoch 50: 92.57%
Total training time: 41.0 seconds
