Device: cuda
Accuracy for epoch 1: 58.08%
Accuracy for epoch 2: 58.08%
Accuracy for epoch 3: 58.08%
Accuracy for epoch 4: 58.08%
Accuracy for epoch 5: 58.08%
Accuracy for epoch 6: 58.08%
Accuracy for epoch 7: 58.08%
Accuracy for epoch 8: 58.08%
Accuracy for epoch 9: 58.08%
Accuracy for epoch 10: 58.08%
Accuracy for epoch 11: 58.08%
Accuracy for epoch 12: 0.67%
Accuracy for epoch 13: 0.67%
Accuracy for epoch 14: 0.67%
Accuracy for epoch 15: 0.67%
Accuracy for epoch 16: 0.67%
Accuracy for epoch 17: 58.08%
Accuracy for epoch 18: 0.67%
Accuracy for epoch 19: 0.67%
Accuracy for epoch 20: 0.67%
Accuracy for epoch 21: 0.67%
Accuracy for epoch 22: 0.67%
Accuracy for epoch 23: 0.67%
Accuracy for epoch 24: 11.3%
Accuracy for epoch 25: 0.67%
Accuracy for epoch 26: 0.67%
Accuracy for epoch 27: 0.67%
Accuracy for epoch 28: 0.67%
Accuracy for epoch 29: 0.67%
Accuracy for epoch 30: 0.67%
Accuracy for epoch 31: 0.67%
Accuracy for epoch 32: 0.67%
Accuracy for epoch 33: 0.67%
Accuracy for epoch 34: 0.67%
Accuracy for epoch 35: 11.42%
Accuracy for epoch 36: 0.67%
Accuracy for epoch 37: 0.67%
Accuracy for epoch 38: 0.67%
Accuracy for epoch 39: 0.67%
Accuracy for epoch 40: 0.67%
Accuracy for epoch 41: 0.67%
Accuracy for epoch 42: 0.67%
Accuracy for epoch 43: 0.67%
Accuracy for epoch 44: 0.67%
Accuracy for epoch 45: 0.67%
Accuracy for epoch 46: 0.67%
Accuracy for epoch 47: 0.67%
Accuracy for epoch 48: 0.67%
Accuracy for epoch 49: 0.67%
Accuracy for epoch 50: 0.67%
Total training time: 87.8 seconds
