Device: cuda
Accuracy for epoch 1: 10.68%
Accuracy for epoch 2: 10.68%
Accuracy for epoch 3: 10.68%
Accuracy for epoch 4: 10.68%
Accuracy for epoch 5: 10.68%
Accuracy for epoch 6: 10.68%
Accuracy for epoch 7: 10.68%
Accuracy for epoch 8: 10.68%
Accuracy for epoch 9: 10.68%
Accuracy for epoch 10: 10.68%
Accuracy for epoch 11: 10.68%
Accuracy for epoch 12: 58.05%
Accuracy for epoch 13: 58.07%
Accuracy for epoch 14: 58.08%
Accuracy for epoch 15: 58.08%
Accuracy for epoch 16: 58.08%
Accuracy for epoch 17: 58.08%
Accuracy for epoch 18: 0.67%
Accuracy for epoch 19: 58.1%
Accuracy for epoch 20: 0.67%
Accuracy for epoch 21: 0.67%
Accuracy for epoch 22: 57.8%
Accuracy for epoch 23: 58.08%
Accuracy for epoch 24: 0.69%
Accuracy for epoch 25: 57.98%
Accuracy for epoch 26: 53.79%
Accuracy for epoch 27: 0.74%
Accuracy for epoch 28: 0.67%
Accuracy for epoch 29: 0.67%
Accuracy for epoch 30: 0.67%
Accuracy for epoch 31: 57.89%
Accuracy for epoch 32: 57.59%
Accuracy for epoch 33: 57.5%
Accuracy for epoch 34: 57.55%
Accuracy for epoch 35: 57.63%
Accuracy for epoch 36: 57.67%
Accuracy for epoch 37: 57.71%
Accuracy for epoch 38: 57.73%
Accuracy for epoch 39: 57.76%
Accuracy for epoch 40: 57.76%
Accuracy for epoch 41: 57.76%
Accuracy for epoch 42: 57.76%
Accuracy for epoch 43: 57.8%
Accuracy for epoch 44: 57.8%
Accuracy for epoch 45: 57.8%
Accuracy for epoch 46: 57.8%
Accuracy for epoch 47: 57.8%
Accuracy for epoch 48: 57.83%
Accuracy for epoch 49: 57.83%
Accuracy for epoch 50: 57.83%
Total training time: 107.4 seconds
