Device: cuda
Accuracy for epoch 1: 10.68%
Accuracy for epoch 2: 10.77%
Accuracy for epoch 3: 11.07%
Accuracy for epoch 4: 58.05%
Accuracy for epoch 5: 58.07%
Accuracy for epoch 6: 58.08%
Accuracy for epoch 7: 58.08%
Accuracy for epoch 8: 58.08%
Accuracy for epoch 9: 58.08%
Accuracy for epoch 10: 58.08%
Accuracy for epoch 11: 58.08%
Accuracy for epoch 12: 58.08%
Accuracy for epoch 13: 57.83%
Accuracy for epoch 14: 58.08%
Accuracy for epoch 15: 58.08%
Accuracy for epoch 16: 58.08%
Accuracy for epoch 17: 58.08%
Accuracy for epoch 18: 0.67%
Accuracy for epoch 19: 0.67%
Accuracy for epoch 20: 0.67%
Accuracy for epoch 21: 10.8%
Accuracy for epoch 22: 0.67%
Accuracy for epoch 23: 0.67%
Accuracy for epoch 24: 10.74%
Accuracy for epoch 25: 10.78%
Accuracy for epoch 26: 10.78%
Accuracy for epoch 27: 0.67%
Accuracy for epoch 28: 10.79%
Accuracy for epoch 29: 0.67%
Accuracy for epoch 30: 10.55%
Accuracy for epoch 31: 11.57%
Accuracy for epoch 32: 0.67%
Accuracy for epoch 33: 11.55%
Accuracy for epoch 34: 11.55%
Accuracy for epoch 35: 0.67%
Accuracy for epoch 36: 11.41%
Accuracy for epoch 37: 0.67%
Accuracy for epoch 38: 11.6%
Accuracy for epoch 39: 9.03%
Accuracy for epoch 40: 11.53%
Accuracy for epoch 41: 11.54%
Accuracy for epoch 42: 11.63%
Accuracy for epoch 43: 0.67%
Accuracy for epoch 44: 0.67%
Accuracy for epoch 45: 0.67%
Accuracy for epoch 46: 0.67%
Accuracy for epoch 47: 0.67%
Accuracy for epoch 48: 0.67%
Accuracy for epoch 49: 0.67%
Accuracy for epoch 50: 0.67%
Total training time: 165.0 seconds
