Device: cuda
Accuracy for epoch 1: 58.08%
Accuracy for epoch 2: 51.89%
Accuracy for epoch 3: 56.52%
Accuracy for epoch 4: 51.52%
Accuracy for epoch 5: 52.48%
Accuracy for epoch 6: 63.21%
Accuracy for epoch 7: 45.41%
Accuracy for epoch 8: 65.32%
Accuracy for epoch 9: 67.45%
Accuracy for epoch 10: 74.92%
Accuracy for epoch 11: 77.4%
Accuracy for epoch 12: 76.53%
Accuracy for epoch 13: 74.96%
Accuracy for epoch 14: 79.23%
Accuracy for epoch 15: 79.35%
Accuracy for epoch 16: 80.57%
Accuracy for epoch 17: 78.39%
Accuracy for epoch 18: 83.09%
Accuracy for epoch 19: 82.81%
Accuracy for epoch 20: 84.11%
Accuracy for epoch 21: 80.19%
Accuracy for epoch 22: 85.22%
Accuracy for epoch 23: 80.92%
Accuracy for epoch 24: 83.08%
Accuracy for epoch 25: 85.59%
Accuracy for epoch 26: 87.03%
Accuracy for epoch 27: 83.54%
Accuracy for epoch 28: 87.31%
Accuracy for epoch 29: 84.88%
Accuracy for epoch 30: 87.53%
Accuracy for epoch 31: 75.93%
Accuracy for epoch 32: 88.37%
Accuracy for epoch 33: 85.46%
Accuracy for epoch 34: 88.22%
Accuracy for epoch 35: 88.65%
Accuracy for epoch 36: 88.65%
Accuracy for epoch 37: 89.09%
Accuracy for epoch 38: 87.27%
Accuracy for epoch 39: 89.73%
Accuracy for epoch 40: 89.8%
Accuracy for epoch 41: 86.92%
Accuracy for epoch 42: 89.97%
Accuracy for epoch 43: 90.08%
Accuracy for epoch 44: 90.08%
Accuracy for epoch 45: 90.12%
Accuracy for epoch 46: 90.06%
Accuracy for epoch 47: 90.2%
Accuracy for epoch 48: 89.36%
Accuracy for epoch 49: 90.21%
Accuracy for epoch 50: 90.2%
Total training time: 38.6 seconds
