Device: cuda
Accuracy for epoch 1: 0.67%
Accuracy for epoch 2: 10.69%
Accuracy for epoch 3: 55.54%
Accuracy for epoch 4: 56.72%
Accuracy for epoch 5: 58.0%
Accuracy for epoch 6: 58.3%
Accuracy for epoch 7: 64.48%
Accuracy for epoch 8: 67.82%
Accuracy for epoch 9: 71.32%
Accuracy for epoch 10: 71.24%
Accuracy for epoch 11: 75.19%
Accuracy for epoch 12: 10.68%
Accuracy for epoch 13: 10.68%
Accuracy for epoch 14: 10.68%
Accuracy for epoch 15: 10.68%
Accuracy for epoch 16: 10.68%
Accuracy for epoch 17: 10.68%
Accuracy for epoch 18: 10.68%
Accuracy for epoch 19: 10.68%
Accuracy for epoch 20: 10.68%
Accuracy for epoch 21: 10.68%
Accuracy for epoch 22: 10.68%
Accuracy for epoch 23: 10.68%
Accuracy for epoch 24: 10.68%
Accuracy for epoch 25: 10.68%
Accuracy for epoch 26: 10.68%
Accuracy for epoch 27: 10.68%
Accuracy for epoch 28: 10.68%
Accuracy for epoch 29: 10.68%
Accuracy for epoch 30: 10.68%
Accuracy for epoch 31: 10.68%
Accuracy for epoch 32: 10.68%
Accuracy for epoch 33: 10.68%
Accuracy for epoch 34: 10.68%
Accuracy for epoch 35: 10.68%
Accuracy for epoch 36: 10.68%
Accuracy for epoch 37: 10.68%
Accuracy for epoch 38: 10.68%
Accuracy for epoch 39: 10.68%
Accuracy for epoch 40: 10.68%
Accuracy for epoch 41: 10.68%
Accuracy for epoch 42: 10.68%
Accuracy for epoch 43: 10.68%
Accuracy for epoch 44: 10.68%
Accuracy for epoch 45: 10.68%
Accuracy for epoch 46: 10.68%
Accuracy for epoch 47: 10.68%
Accuracy for epoch 48: 10.68%
Accuracy for epoch 49: 10.68%
Accuracy for epoch 50: 10.68%
Total training time: 38.1 seconds
