Device: cuda
Accuracy for epoch 1: 11.24%
Accuracy for epoch 2: 11.24%
Accuracy for epoch 3: 58.08%
Accuracy for epoch 4: 54.08%
Accuracy for epoch 5: 49.55%
Accuracy for epoch 6: 10.68%
Accuracy for epoch 7: 10.68%
Accuracy for epoch 8: 10.68%
Accuracy for epoch 9: 12.02%
Accuracy for epoch 10: 43.3%
Accuracy for epoch 11: 58.39%
Accuracy for epoch 12: 59.53%
Accuracy for epoch 13: 63.7%
Accuracy for epoch 14: 64.59%
Accuracy for epoch 15: 68.6%
Accuracy for epoch 16: 40.85%
Accuracy for epoch 17: 61.41%
Accuracy for epoch 18: 11.24%
Accuracy for epoch 19: 11.24%
Accuracy for epoch 20: 11.24%
Accuracy for epoch 21: 11.24%
Accuracy for epoch 22: 11.24%
Accuracy for epoch 23: 11.24%
Accuracy for epoch 24: 11.24%
Accuracy for epoch 25: 11.24%
Accuracy for epoch 26: 11.24%
Accuracy for epoch 27: 11.24%
Accuracy for epoch 28: 11.24%
Accuracy for epoch 29: 11.24%
Accuracy for epoch 30: 11.24%
Accuracy for epoch 31: 11.24%
Accuracy for epoch 32: 11.24%
Accuracy for epoch 33: 58.02%
Accuracy for epoch 34: 58.04%
Accuracy for epoch 35: 58.08%
Accuracy for epoch 36: 58.07%
Accuracy for epoch 37: 11.54%
Accuracy for epoch 38: 11.54%
Accuracy for epoch 39: 11.55%
Accuracy for epoch 40: 11.54%
Accuracy for epoch 41: 58.08%
Accuracy for epoch 42: 58.08%
Accuracy for epoch 43: 11.54%
Accuracy for epoch 44: 11.54%
Accuracy for epoch 45: 11.54%
Accuracy for epoch 46: 11.54%
Accuracy for epoch 47: 11.54%
Accuracy for epoch 48: 11.54%
Accuracy for epoch 49: 11.54%
Accuracy for epoch 50: 11.54%
Total training time: 47.5 seconds
