Device: cuda
Accuracy for epoch 1: 10.47%
Accuracy for epoch 2: 12.66%
Accuracy for epoch 3: 58.42%
Accuracy for epoch 4: 54.22%
Accuracy for epoch 5: 60.77%
Accuracy for epoch 6: 64.82%
Accuracy for epoch 7: 67.58%
Accuracy for epoch 8: 64.86%
Accuracy for epoch 9: 71.1%
Accuracy for epoch 10: 67.75%
Accuracy for epoch 11: 56.79%
Accuracy for epoch 12: 59.8%
Accuracy for epoch 13: 68.99%
Accuracy for epoch 14: 73.43%
Accuracy for epoch 15: 76.82%
Accuracy for epoch 16: 57.0%
Accuracy for epoch 17: 39.81%
Accuracy for epoch 18: 58.08%
Accuracy for epoch 19: 58.08%
Accuracy for epoch 20: 58.08%
Accuracy for epoch 21: 58.08%
Accuracy for epoch 22: 58.08%
Accuracy for epoch 23: 58.08%
Accuracy for epoch 24: 58.08%
Accuracy for epoch 25: 58.08%
Accuracy for epoch 26: 58.08%
Accuracy for epoch 27: 58.08%
Accuracy for epoch 28: 58.08%
Accuracy for epoch 29: 58.08%
Accuracy for epoch 30: 58.08%
Accuracy for epoch 31: 58.08%
Accuracy for epoch 32: 58.08%
Accuracy for epoch 33: 58.08%
Accuracy for epoch 34: 58.08%
Accuracy for epoch 35: 58.08%
Accuracy for epoch 36: 58.08%
Accuracy for epoch 37: 58.08%
Accuracy for epoch 38: 58.08%
Accuracy for epoch 39: 58.08%
Accuracy for epoch 40: 58.08%
Accuracy for epoch 41: 58.08%
Accuracy for epoch 42: 58.08%
Accuracy for epoch 43: 58.08%
Accuracy for epoch 44: 58.08%
Accuracy for epoch 45: 58.08%
Accuracy for epoch 46: 58.08%
Accuracy for epoch 47: 58.08%
Accuracy for epoch 48: 58.08%
Accuracy for epoch 49: 58.08%
Accuracy for epoch 50: 58.08%
Total training time: 30.7 seconds
