Device: cuda
Accuracy for epoch 1: 11.54%
Accuracy for epoch 2: 11.54%
Accuracy for epoch 3: 11.54%
Accuracy for epoch 4: 11.54%
Accuracy for epoch 5: 11.54%
Accuracy for epoch 6: 11.54%
Accuracy for epoch 7: 11.33%
Accuracy for epoch 8: 11.41%
Accuracy for epoch 9: 58.06%
Accuracy for epoch 10: 58.07%
Accuracy for epoch 11: 58.08%
Accuracy for epoch 12: 58.08%
Accuracy for epoch 13: 58.08%
Accuracy for epoch 14: 58.08%
Accuracy for epoch 15: 58.08%
Accuracy for epoch 16: 58.08%
Accuracy for epoch 17: 58.08%
Accuracy for epoch 18: 58.1%
Accuracy for epoch 19: 56.17%
Accuracy for epoch 20: 32.32%
Accuracy for epoch 21: 58.1%
Accuracy for epoch 22: 54.12%
Accuracy for epoch 23: 57.59%
Accuracy for epoch 24: 0.67%
Accuracy for epoch 25: 56.29%
Accuracy for epoch 26: 58.09%
Accuracy for epoch 27: 6.05%
Accuracy for epoch 28: 57.31%
Accuracy for epoch 29: 57.31%
Accuracy for epoch 30: 57.37%
Accuracy for epoch 31: 57.41%
Accuracy for epoch 32: 57.46%
Accuracy for epoch 33: 57.5%
Accuracy for epoch 34: 57.55%
Accuracy for epoch 35: 57.6%
Accuracy for epoch 36: 57.67%
Accuracy for epoch 37: 57.71%
Accuracy for epoch 38: 57.73%
Accuracy for epoch 39: 57.73%
Accuracy for epoch 40: 57.76%
Accuracy for epoch 41: 57.76%
Accuracy for epoch 42: 57.76%
Accuracy for epoch 43: 57.76%
Accuracy for epoch 44: 57.76%
Accuracy for epoch 45: 57.8%
Accuracy for epoch 46: 57.8%
Accuracy for epoch 47: 57.8%
Accuracy for epoch 48: 57.8%
Accuracy for epoch 49: 57.8%
Accuracy for epoch 50: 57.8%
Total training time: 75.4 seconds
