Device: cuda
Accuracy for epoch 1: 2.66%
Accuracy for epoch 2: 54.16%
Accuracy for epoch 3: 55.38%
Accuracy for epoch 4: 10.68%
Accuracy for epoch 5: 57.86%
Accuracy for epoch 6: 54.35%
Accuracy for epoch 7: 60.76%
Accuracy for epoch 8: 65.33%
Accuracy for epoch 9: 62.11%
Accuracy for epoch 10: 72.96%
Accuracy for epoch 11: 74.75%
Accuracy for epoch 12: 84.19%
Accuracy for epoch 13: 81.75%
Accuracy for epoch 14: 87.56%
Accuracy for epoch 15: 83.31%
Accuracy for epoch 16: 88.61%
Accuracy for epoch 17: 89.36%
Accuracy for epoch 18: 89.0%
Accuracy for epoch 19: 90.17%
Accuracy for epoch 20: 90.29%
Accuracy for epoch 21: 90.59%
Accuracy for epoch 22: 90.56%
Accuracy for epoch 23: 90.55%
Accuracy for epoch 24: 89.81%
Accuracy for epoch 25: 90.66%
Accuracy for epoch 26: 90.26%
Accuracy for epoch 27: 91.01%
Accuracy for epoch 28: 91.09%
Accuracy for epoch 29: 91.04%
Accuracy for epoch 30: 91.37%
Accuracy for epoch 31: 91.52%
Accuracy for epoch 32: 91.56%
Accuracy for epoch 33: 91.61%
Accuracy for epoch 34: 91.68%
Accuracy for epoch 35: 91.68%
Accuracy for epoch 36: 91.75%
Accuracy for epoch 37: 91.73%
Accuracy for epoch 38: 91.8%
Accuracy for epoch 39: 91.88%
Accuracy for epoch 40: 92.05%
Accuracy for epoch 41: 92.03%
Accuracy for epoch 42: 92.13%
Accuracy for epoch 43: 92.08%
Accuracy for epoch 44: 92.32%
Accuracy for epoch 45: 92.37%
Accuracy for epoch 46: 92.36%
Accuracy for epoch 47: 92.31%
Accuracy for epoch 48: 92.42%
Accuracy for epoch 49: 92.44%
Accuracy for epoch 50: 92.43%
Total training time: 41.5 seconds
