Device: cuda
Accuracy for epoch 1: 11.24%
Accuracy for epoch 2: 11.24%
Accuracy for epoch 3: 11.24%
Accuracy for epoch 4: 11.24%
Accuracy for epoch 5: 11.24%
Accuracy for epoch 6: 11.24%
Accuracy for epoch 7: 11.24%
Accuracy for epoch 8: 10.65%
Accuracy for epoch 9: 10.67%
Accuracy for epoch 10: 10.68%
Accuracy for epoch 11: 10.68%
Accuracy for epoch 12: 10.68%
Accuracy for epoch 13: 10.68%
Accuracy for epoch 14: 10.76%
Accuracy for epoch 15: 58.04%
Accuracy for epoch 16: 0.67%
Accuracy for epoch 17: 11.38%
Accuracy for epoch 18: 58.08%
Accuracy for epoch 19: 58.08%
Accuracy for epoch 20: 58.08%
Accuracy for epoch 21: 58.08%
Accuracy for epoch 22: 58.08%
Accuracy for epoch 23: 0.67%
Accuracy for epoch 24: 0.67%
Accuracy for epoch 25: 0.67%
Accuracy for epoch 26: 58.08%
Accuracy for epoch 27: 58.08%
Accuracy for epoch 28: 0.67%
Accuracy for epoch 29: 50.59%
Accuracy for epoch 30: 56.71%
Accuracy for epoch 31: 57.8%
Accuracy for epoch 32: 57.41%
Accuracy for epoch 33: 57.41%
Accuracy for epoch 34: 57.41%
Accuracy for epoch 35: 57.46%
Accuracy for epoch 36: 57.5%
Accuracy for epoch 37: 57.55%
Accuracy for epoch 38: 57.63%
Accuracy for epoch 39: 57.67%
Accuracy for epoch 40: 57.71%
Accuracy for epoch 41: 57.73%
Accuracy for epoch 42: 57.73%
Accuracy for epoch 43: 57.76%
Accuracy for epoch 44: 57.76%
Accuracy for epoch 45: 57.8%
Accuracy for epoch 46: 57.76%
Accuracy for epoch 47: 57.8%
Accuracy for epoch 48: 57.8%
Accuracy for epoch 49: 57.83%
Accuracy for epoch 50: 57.76%
Total training time: 79.0 seconds
