{'hidden_size': 32, 'batch_size': 64, 'num_layers': 1, 'num_epochs': 50, 'learning_rate': 0.001, 'momentum': 0.7999999999999999, 'weight_decay': 0.0, 'optim': <class 'torch.optim.sgd.SGD'>}
Device: cuda
Accuracy for epoch 1: 3.4%
Accuracy for epoch 2: 3.4%
Accuracy for epoch 3: 9.95%
Accuracy for epoch 4: 42.68%
Accuracy for epoch 5: 49.71%
Accuracy for epoch 6: 50.3%
Accuracy for epoch 7: 53.51%
Accuracy for epoch 8: 55.05%
Accuracy for epoch 9: 54.94%
Accuracy for epoch 10: 54.99%
Accuracy for epoch 11: 54.99%
Accuracy for epoch 12: 54.99%
Accuracy for epoch 13: 54.99%
Accuracy for epoch 14: 54.99%
Accuracy for epoch 15: 54.99%
Accuracy for epoch 16: 55.06%
Accuracy for epoch 17: 55.43%
Accuracy for epoch 18: 56.27%
Accuracy for epoch 19: 55.99%
Accuracy for epoch 20: 55.53%
Accuracy for epoch 21: 55.18%
Accuracy for epoch 22: 54.5%
Accuracy for epoch 23: 54.27%
Accuracy for epoch 24: 54.02%
Accuracy for epoch 25: 53.82%
Accuracy for epoch 26: 53.5%
Accuracy for epoch 27: 53.44%
Accuracy for epoch 28: 53.18%
Accuracy for epoch 29: 53.2%
Accuracy for epoch 30: 53.04%
Accuracy for epoch 31: 53.08%
Accuracy for epoch 32: 52.99%
Accuracy for epoch 33: 52.81%
Accuracy for epoch 34: 52.82%
Accuracy for epoch 35: 52.8%
Accuracy for epoch 36: 52.8%
Accuracy for epoch 37: 52.97%
Accuracy for epoch 38: 53.02%
Accuracy for epoch 39: 53.01%
Accuracy for epoch 40: 53.24%
Accuracy for epoch 41: 53.35%
Accuracy for epoch 42: 53.47%
Accuracy for epoch 43: 53.69%
Accuracy for epoch 44: 53.63%
Accuracy for epoch 45: 53.68%
Accuracy for epoch 46: 53.59%
Accuracy for epoch 47: 53.56%
Accuracy for epoch 48: 53.6%
Accuracy for epoch 49: 53.76%
Accuracy for epoch 50: 53.8%
Total training time: 10.9 seconds
