{'hidden_size': 32, 'batch_size': 64, 'num_layers': 1, 'num_epochs': 50, 'learning_rate': 0.01, 'momentum': 0.7, 'weight_decay': 0.0, 'optim': <class 'torch.optim.sgd.SGD'>}
Device: cuda
Accuracy for epoch 1: 10.11%
Accuracy for epoch 2: 55.06%
Accuracy for epoch 3: 55.08%
Accuracy for epoch 4: 53.93%
Accuracy for epoch 5: 52.84%
Accuracy for epoch 6: 52.51%
Accuracy for epoch 7: 52.06%
Accuracy for epoch 8: 52.84%
Accuracy for epoch 9: 53.12%
Accuracy for epoch 10: 53.07%
Accuracy for epoch 11: 54.03%
Accuracy for epoch 12: 54.91%
Accuracy for epoch 13: 54.27%
Accuracy for epoch 14: 55.75%
Accuracy for epoch 15: 52.8%
Accuracy for epoch 16: 53.61%
Accuracy for epoch 17: 54.08%
Accuracy for epoch 18: 54.77%
Accuracy for epoch 19: 55.24%
Accuracy for epoch 20: 55.53%
Accuracy for epoch 21: 55.88%
Accuracy for epoch 22: 56.53%
Accuracy for epoch 23: 54.06%
Accuracy for epoch 24: 56.55%
Accuracy for epoch 25: 56.59%
Accuracy for epoch 26: 56.93%
Accuracy for epoch 27: 56.42%
Accuracy for epoch 28: 56.9%
Accuracy for epoch 29: 56.79%
Accuracy for epoch 30: 58.08%
Accuracy for epoch 31: 56.2%
Accuracy for epoch 32: 57.25%
Accuracy for epoch 33: 58.35%
Accuracy for epoch 34: 59.67%
Accuracy for epoch 35: 58.34%
Accuracy for epoch 36: 32.27%
Accuracy for epoch 37: 55.15%
Accuracy for epoch 38: 58.82%
Accuracy for epoch 39: 59.06%
Accuracy for epoch 40: 59.76%
Accuracy for epoch 41: 60.07%
Accuracy for epoch 42: 61.08%
Accuracy for epoch 43: 62.17%
Accuracy for epoch 44: 62.23%
Accuracy for epoch 45: 60.84%
Accuracy for epoch 46: 61.67%
Accuracy for epoch 47: 63.37%
Accuracy for epoch 48: 63.25%
Accuracy for epoch 49: 64.27%
Accuracy for epoch 50: 64.66%
Total training time: 11.0 seconds
